…
---

    Code
      dfs$formulations_parameters
    Output
      # A tibble: 22 x 4
         formulation_id    name                                  value unit 
         <chr>             <chr>                                 <dbl> <chr>
       1 Tablet (Dormicum) Dissolution time (50% dissolved)     0.0107 min  
       2 Tablet (Dormicum) Lag time                            12      min  
       3 Tablet (Dormicum) Dissolution shape                    4.38   <NA> 
       4 Tablet (Dormicum) Use as suspension                    1      <NA> 
       5 form_Lint80       Dissolution time (80% dissolved)   240      min  
       6 form_Lint80       Lag time                             0      min  
       7 form_Lint80       Use as suspension                    1      <NA> 
       8 form-partdiss     Thickness (unstirred water layer)   30      µm   
       9 form-partdiss     Type of particle size distribution   0      <NA> 
      10 form-partdiss     Particle radius (mean)              10      µm   
      # i 12 more rows
…
