…
---

    Code
      dfs$populations_parameters
    Output
      # A tibble: 28 x 9
         population_id parameter        seed distribution_type statistic   value unit 
         <chr>         <chr>           <int> <chr>             <chr>       <dbl> <chr>
       1 pop_1         CYP3A4|t1/2 ~  2.02e8 Normal            Mean      2.3 e+1 h    
       2 pop_1         CYP3A4|t1/2 ~  2.02e8 Normal            Deviation 1.2 e+1 h    
       3 pop_1         Organism|Bon~  2.03e8 Discrete          Mean      1.14e-4 l/min
       4 pop_1         Organism|Bon~  2.03e8 Uniform           Minimum   1.2 e+1 <NA> 
       5 pop_1         Organism|Bon~  2.03e8 Uniform           Maximum   1.4 e+1 <NA> 
       6 pop_1         Organism|Gal~  2.03e8 Discrete          Mean      1.97e+1 min  
       7 pop2          Organism|pH ~ -1.75e9 LogNormal         Mean      7   e+0 <NA> 
       8 pop2          Organism|pH ~ -1.75e9 LogNormal         Geometri~ 1   e+0 <NA> 
       9 pop2          Organism|Vf ~ -1.75e9 Uniform           Minimum   0       <NA> 
      10 pop2          Organism|Vf ~ -1.75e9 Uniform           Maximum   1   e+0 <NA> 
      # i 18 more rows
      # i 2 more variables: source <chr>, description <chr>
…
